{
    "name": {
        "en-US": "downloaded",
        "de-DE": "heruntergeladen"
    },
    "description": {
        "en-US": "Actor downloaded an object (e. g. a PDF file)",
        "de-DE": "Akteur hat ein Objekt (z. B. eine PDF Datei) heruntergeladen"
    },
    "exactMatch": [
      "https://registry.tincanapi.com/#uri/verb/475"
    ],
    "relatedMatch": [
    ]
}
