{
    "name": {
        "en-US": "solved",
        "de-DE": "gelöst"
    },
    "description": {
        "en-US": "Actor solved an activity",
        "de-DE": "Akteur hat eine Aufgabe gelöst"
    }
    }