{
    "name": {
        "en-US": "Audio Message",
        "de-DE": "Sprachnachricht"
    },
    "description": {
        "en-US": "A voice recording sent or received within a chat environment.",
        "de-DE": "Eine Sprachaufnahme, die innerhalb einer Chat-Umgebung gesendet oder empfangen wurde."
    },
    "exactMatch": [
        "http://activitystrea.ms/schema/1.0/audio",
        "https://registry.tincanapi.com/#uri/activityType/audioMessage"
    ]
}