{
    "name": {
        "en-US": "File",
        "de-DE": "Datei"
    },
    "description": {
        "en-US": "A digital file, such as an image or document, shared within a chat environment.",
        "de-DE": "Eine digitale Datei, wie z.B. ein Bild oder Dokument, die innerhalb einer Chat-Umgebung geteilt wird."
    },
    "exactMatch": [
        "http://activitystrea.ms/schema/1.0/file",
        "https://registry.tincanapi.com/#uri/activityType/file"
    ]
}