{
  "name": {
      "en-US": "feedback for writing tasks",
      "de-DE": "Feedback zu Schreibaufgabe"
  },
  "description": {
      "en-US": "Feedback for a writing task.",
      "de-DE": "Feedback zu einer Schreibaufgabe."
  }
}
