{
  "name": {
      "en-US": "text for writing tasks",
      "de-DE": "Aufgabenstellung für Schreibaufgaben"
  },
  "description": {
      "en-US": "Text for writing tasks to be worked on.",
      "de-DE": "Aufgabenstellung für Schreibaufgaben, die bearbeitet werden sollen."
  }
}
