{
    "name": {
        "en-US": "left",
        "de-DE": "verlassen"
    },
    "description": {
        "en-US": "Actor left a chat room or group conversation.",
        "de-DE": "Akteur hat einen Chatraum oder eine Gruppenunterhaltung verlassen."
    },
    "exactMatch": [
        "https://activitystrea.ms/registry/verbs/left",
        "https://registry.tincanapi.com/#uri/verb/left"
    ]
}