{
  "name": {
      "en-US": "created new user item",
      "de-DE": "hat neues Nutzerelement erstellt"
  },
  "description": {
      "en-US": "Indicates that the actor has created a new user item for the object.",
      "de-DE": "Gibt an, dass der Akteur ein neues Nutzerelement für das Objekt erstellt hat."
  }
}
