{
  "name": {
      "en-US": "deleted user item",
      "de-DE": "hat Nutzerelement gelöscht"
  },
  "description": {
      "en-US": "Indicates that the actor has deleted a userdefined item of the object.",
      "de-DE": "Gibt an, dass der Akteur ein nutzerdefiniertes Element des Objekts gelöscht hat."
  }
}
