{
  "name": {
      "en-US": "moved item",
      "de-DE": "hat Element bewegt"
  },
  "description": {
      "en-US": "Indicates that the actor has moved an item of the object.",
      "de-DE": "Gibt an, dass der Akteur ein Element des Objekts bewegt hat."
  }
}
