{
  "name": {
      "en-US": "opened full view",
      "de-DE": "öffnete als Vollbild"
  },
  "description": {
      "en-US": "Indicates that the actor has opened object in vull view.",
      "de-DE": "Gibt an, dass der Akteur das Objekt als Vollbild geöffnet hat."
  }
}
