{
  "name": {
      "en-US": "rated thumbs up",
      "de-DE": "bewertete mit Daumen hoch"
  },
  "description": {
      "en-US": "Indicates that the actor has rated the object with a thumbs up.",
      "de-DE": "Gibt an, dass der Akteur das Objekt mit Daumen hoch bewertet hat."
  }
}
