{
  "name": {
      "en-US": "sent message",
      "de-DE": "sendete Nachricht"
  },
  "description": {
      "en-US": "Indicates that the actor has sent a message to object.",
      "de-DE": "Gibt an, dass der Akteur eine Nachricht an das Objekt gesendet hat."
  }
}
