{
  "name": {
      "en-US": "unset done",
      "de-DE": "erledigt zurückgesetzt"
  },
  "description": {
      "en-US": "Indicates that the actor has unset 'done' for the object.",
      "de-DE": "Gibt an, dass der Akteur 'erledigt' für das Objekt zurück gesetzt hat."
  }
}
