{
    "name": {
        "de-DE": "kann Pläne/Skizzen lesen, verstehen und umsetzen"
    },
    "description": {
        "de-DE": "Subscore (5/5 bzw. ++) wenn ein Akteuer Pläne/Skizzen lesen, verstehen und umsetzen kann"
    },
    "result":{
        "score":{
          "min": 1,
          "max": 5
        }
    }
}