{
    "name": {
        "de-DE": "lässt andere ausreden"
    },
    "description": {
        "de-DE": "Subscore (5/5 bzw. ++) wenn ein Akteuer andere ausreden lässt"
    },
    "result":{
        "score":{
          "min": 1,
          "max": 5
        }
    }
}