{
    "name": {
        "de-DE": "vertritt eigene Meinungen und zeigt sich dabei kompromissbereit"
    },
    "description": {
        "de-DE": "Subscore (5/5 bzw. ++) wenn ein Akteuer eigene Meinungen vertritt und sich dabei kompromissbereit zeigt"
    },
    "result":{
        "score":{
          "min": 1,
          "max": 5
        }
    }
}