{
    "name": {
        "de-DE": "zeigt sich hilfsbereit und unterstützt andere aktiv"
    },
    "description": {
        "de-DE": "Subscore (5/5 bzw. ++) wenn ein Akteuer sich hilfsbereit zeigt und andere aktiv unterstützt"
    },
    "result":{
        "score":{
          "min": 1,
          "max": 5
        }
    }
}