{
  "name": {
    "en-US": "End Value",
    "de-DE": "Endwert"
  },
  "description": {
    "en-US": "Representation of a object directly after the statement occurred. 'End Value' should be used with the 'Start Value' extension to provide information about the actual change of the object. Can be used with 'edited' or 'changed' verbs.",
    "de-DE": "Repräsentation von einem Objekt direkt nachdem das Statement auftrat. 'Endwert' sollte mit der Extension 'Startwert' benutzt werden um Information über die Änderung eines Objektes darzulegen. Kann zum Beispiel mit den Verben 'editierte' und 'veränderte' benutzt werden."
  }
}
