{
    "name": {
        "en-US": "removed",
        "de-DE": "entfernte"
    },
    "description": {
        "en-US": "An actor has removed a virtual object from the VR environment.",
        "de-DE": "Ein Akteur hat ein virtuelles Objekt aus der VR Umgebung entfernt."
    }
}