{
    "name": {
        "en-US": "collapsed",
        "de-DE": "klappte ein"
    },
    "description": {
        "en-US": "An actor collapsed something, a menu for example.",
        "de-DE": "Ein Agierender klappte etwas ein, ein Menü zum Beispiel ein."
    }
}