{
    "name": {
        "en-US": "moved",
        "de-DE": "bewegte"
    },
    "description": {
        "en-US": "An actor moved itself or some object in the game world.",
        "de-DE": "Ein Akteur bewegte sich oder einen Gegenstand in der Spielwelt."
    }
}
