{
    "name": {
        "en-US": "saved",
        "de-DE": "speicherte"
    },
    "description": {
        "en-US": "An actor saved the progress.",
        "de-DE": "Ein Akteur speicherte den Fortschritt."
    },
    "exactMatch": [
        "https://registry.tincanapi.com/#uri/verb/142",
        "https://activitystrea.ms/schema/1.0/save"
    ]
}
