{
    "name": {
        "en-US": "voted",
        "de-DE": "stimmte ab"
    },
    "description": {
        "en-US": "A group of actors voted on something.",
        "de-DE": "Eine Gruppe von Acteuren stimmte für etwas ab."
    }
}
