{
    "name": {
        "en-US": "Resource",
        "de-DE": "Ressource"
    },
    "description": {
        "en-US": "A course resource as a single file (e.g. PDF).",
        "de-DE": "Eine Kursressource als einzelne Datei (z. B. PDF)."
    },
    "exactMatch": [
        "http://id.tincanapi.com/activitytype/resource"
    ],
    "relatedMatch": [ ]
}