{
    "name": {
        "de-DE": "Achtsamkeit"
    },
    "description": {
        "de-DE": "Mainscore (5/5) wenn ein Akteuer Achtsamkeit zeigt"
    },
    "result":{
        "score":{
          "min": 1,
          "max": 5
        }
    }
}