{
    "name": {
        "en-US": "group",
        "de-DE": "Gruppe"
    },
    "description": {
        "en-US": "Represents a grouping of objects or persons in which member objects can join or leave.",
        "de-DE": "Stellt eine Gruppierung von Objekten oder Personen dar, in der die Mitgliedsobjekte der Gruppe beitreten oder sie verlassen können."
    },
    "exactMatch": [
        "https://registry.tincanapi.com/#uri/activityType/64",
        "https://activitystrea.ms/schema/1.0/group"
    ]
}