{
    "name": {
        "en-US": "menu",
        "de-DE": "Menü"
    },
    "description": {
        "en-US": "A list of possible choices that are shown, e.g. start menu or ingame menu for settings.",
        "de-DE": "Eine Liste möglicher Optionen, die angezeigt werden, z. B. das Startmenü oder das Spielmenü für Einstellungen."
    }
}