{
    "name": {
        "en-US": "solvability",
        "de-DE": "Lösbarkeit"
    },
    "description": {
        "en-US": "The status wether a task can be completed in the current state.",
        "de-DE": "Der Zustand, ob die aktuelle Aufgabe noch gelöst werden kann mit dem aktuelle Systemzustand."
    }
}