{
    "name": {
        "en-US": "stop video button",
        "de-DE": "Videostopp-Knopf"
    },
    "description": {
        "en-US": "A button to stop a video.",
        "de-DE": "Ein Knopf um ein Video zu stoppen."
    }
}